…
The package provides administrative district information into `tibble`
format. You can show all the information as follows:

> このパッケージは行政区域データを`tibble`形式で提供します。
> 以下のようにして全ての情報を表示することができます。

``` r
kyoto_districts
#> Simple feature collection with 36 features and 4 fields
#> Geometry type: GEOMETRY
#> Dimension:     XY
#> Bounding box:  xmin: 134.8537 ymin: 34.70575 xmax: 136.0555 ymax: 35.77926
#> Geodetic CRS:  WGS 84
#> # A tibble: 36 × 5
#>    city_code city                    city_kanji   area                      geom
#>  * <chr>     <chr>                   <chr>       [m^2]             <POLYGON [°]>
#>  1 26101     Kyoto-shi Kita-ku       京都市 北… 9.49e7 ((135.7253 35.17083, 135…
#>  2 26102     Kyoto-shi Kamigyo-ku    京都市 上… 7.03e6 ((135.7506 35.03822, 135…
#>  3 26103     Kyoto-shi Sakyo-ku      京都市 左… 2.47e8 ((135.8048 35.31709, 135…
#>  4 26104     Kyoto-shi Nakagyo-ku    京都市 中… 7.41e6 ((135.7319 35.02254, 135…
#>  5 26105     Kyoto-shi Higashiyama-… 京都市 東… 7.48e6 ((135.7847 35.01038, 135…
#>  6 26106     Kyoto-shi Shimogyo-ku   京都市 下… 6.78e6 ((135.7698 35.00429, 135…
#>  7 26107     Kyoto-shi Minami-ku     京都市 南… 1.58e7 ((135.7256 34.98558, 135…
#>  8 26108     Kyoto-shi Ukyo-ku       京都市 右… 2.92e8 ((135.7298 35.26636, 135…
#>  9 26109     Kyoto-shi Fushimi-ku    京都市 伏… 6.17e7 ((135.7813 34.97397, 135…
#> 10 26110     Kyoto-shi Yamashina-ku  京都市 山… 2.87e7 ((135.811 35.01557, 135.…
#> # ℹ 26 more rows
```
…
